<?xml version="1.0" encoding="iso-8859-1"?>
<!-- Generator: Adobe Illustrator 19.0.0, SVG Export Plug-In . SVG Version: 6.00 Build 0)  -->
<svg xmlns="http://www.w3.org/2000/svg" xmlns:xlink="http://www.w3.org/1999/xlink" version="1.1" id="Layer_1" x="0px" y="0px" viewBox="0 0 512 512" style="enable-background:new 0 0 512 512;" xml:space="preserve" width="512px" height="512px">
<g>
	<g>
		<path d="M256,0C114.843,0,0,114.843,0,256c0,141.157,114.843,256,256,256s256-114.843,256-256C512,114.843,397.157,0,256,0z     M256,493.037C125.296,493.037,18.963,386.704,18.963,256C18.963,125.296,125.296,18.963,256,18.963S493.037,125.296,493.037,256    C493.037,386.704,386.704,493.037,256,493.037z" fill="#D80027"/>
	</g>
</g>
<g>
	<g>
		<path d="M246.518,284.444c-73.194,0-132.741,59.546-132.741,132.741c0,5.236,4.241,9.482,9.482,9.482s9.481-4.245,9.481-9.482    c0-62.736,51.037-113.778,113.778-113.778c62.741,0,113.778,51.042,113.778,113.778c0,5.236,4.241,9.482,9.481,9.482    s9.482-4.245,9.482-9.482C379.259,343.991,319.713,284.444,246.518,284.444z" fill="#D80027"/>
	</g>
</g>
<g>
	<g>
		<path d="M395.444,135.519c-3.704-3.704-9.704-3.704-13.407,0l-49.546,49.546l-40.759-48.912    c-3.361-4.018-9.315-4.569-13.361-1.213c-4.018,3.352-4.565,9.329-1.213,13.352l47.407,56.889    c1.713,2.046,4.194,3.282,6.861,3.403c0.139,0.005,0.287,0.009,0.426,0.009c2.509,0,4.926-0.995,6.704-2.778l56.889-56.889    C399.148,145.222,399.148,139.222,395.444,135.519z" fill="#D80027"/>
	</g>
</g>
<g>
	<g>
		<path d="M224.148,134.94c-4.046-3.356-10-2.806-13.361,1.213l-40.759,48.912l-49.546-49.546c-3.704-3.704-9.704-3.704-13.407,0    c-3.704,3.704-3.704,9.704,0,13.408l56.889,56.889c1.778,1.782,4.194,2.778,6.704,2.778c0.139,0,0.287-0.005,0.426-0.009    c2.667-0.12,5.148-1.356,6.861-3.403l47.407-56.889C228.713,144.269,228.167,138.292,224.148,134.94z" fill="#D80027"/>
	</g>
</g>
<g>
</g>
<g>
</g>
<g>
</g>
<g>
</g>
<g>
</g>
<g>
</g>
<g>
</g>
<g>
</g>
<g>
</g>
<g>
</g>
<g>
</g>
<g>
</g>
<g>
</g>
<g>
</g>
<g>
</g>
</svg>
